…
``` r
library(coach)
```

Load lineup data exported from a fantasy site and read it in. Check the
documention of the `read_*_*` functions for instructions on how to
export the data. For example, for Draftkings you have to goto your
contest page and select *Export to csv*.

``` r
data <- read_dk("mydata.csv")
print(data)
```

    #> # A tibble: 1,015 × 7
    #>    player_id player          team  position salary fpts_avg fpts_proj
    #>    <chr>     <chr>           <chr> <chr>     <int>    <dbl>     <dbl>
    #>  1 11191729  Le'Veon Bell    PIT   RB         9400     24.7        NA
    #>  2 11192254  Todd Gurley II  LAR   RB         9300     26.5        NA
    #>  3 11191754  David Johnson   ARI   RB         8800     14          NA
    #>  4 11191533  Antonio Brown   PIT   WR         8600     24.6        NA
    #>  5 11192632  Alvin Kamara    NO    RB         8500     19.9        NA
    #>  6 11191840  DeAndre Hopkins HOU   WR         8300     21.7        NA
    #>  7 11192079  Davante Adams   GB    WR         7800     16.1        NA
    #>  8 11192140  Michael Thomas  NO    WR         7800     17.6        NA
    #>  9 11192363  Ezekiel Elliott DAL   RB         7700     21.9        NA
    #> 10 11193133  Julio Jones     ATL   WR         7600     17.3        NA
    #> # … with 1,005 more rows

Add your custom projections into a column called `fpts_proj`. This is
very important! If your projections aren’t good then your optimized
lineups won’t be good either. For this example we’ll just add some
random noise to the player’s season average fantasy points.

``` r
set.seed(100)
n <- nrow(data)
data$fpts_proj <- rnorm(n, data$fpts_avg)
print(data)
```

    #> # A tibble: 1,015 × 7
    #>    player_id player          team  position salary fpts_avg fpts_proj
    #>    <chr>     <chr>           <chr> <chr>     <int>    <dbl>     <dbl>
    #>  1 11191729  Le'Veon Bell    PIT   RB         9400     24.7      24.1
    #>  2 11192254  Todd Gurley II  LAR   RB         9300     26.5      28.1
    #>  3 11191754  David Johnson   ARI   RB         8800     14        14.4
    #>  4 11191533  Antonio Brown   PIT   WR         8600     24.6      25.3
    #>  5 11192632  Alvin Kamara    NO    RB         8500     19.9      19.6
    #>  6 11191840  DeAndre Hopkins HOU   WR         8300     21.7      21.2
    #>  7 11192079  Davante Adams   GB    WR         7800     16.1      16.1
    #>  8 11192140  Michael Thomas  NO    WR         7800     17.6      15.9
    #>  9 11192363  Ezekiel Elliott DAL   RB         7700     21.9      21.3
    #> 10 11193133  Julio Jones     ATL   WR         7600     17.3      15.2
    #> # … with 1,005 more rows
…
