Lineup optimization for daily fantasy sports • coach
…
devtools::install_github("zamorarr/coach")

Example

Load the library.

library(coach)

Load lineup data exported from a fantasy site and read it in. Check the documention of the read_*_* functions for instructions on how to export the data. For example, for Draftkings you have to goto https://www.draftkings.com/lineup/upload and select the sport and slate data to export.

data <- read_dk_nfl("mydata.csv")
print(data)

#> # A tibble: 1,015 x 6
#>    player_id player          team  position salary fpts_avg
#>    <chr>     <chr>           <chr> <chr>     <int>    <dbl>
#>  1 11191729  Le'Veon Bell    PIT   RB         9400     24.7
#>  2 11192254  Todd Gurley II  LAR   RB         9300     26.5
#>  3 11191754  David Johnson   ARI   RB         8800     14  
#>  4 11191533  Antonio Brown   PIT   WR         8600     24.6
#>  5 11192632  Alvin Kamara    NO    RB         8500     19.9
#>  6 11191840  DeAndre Hopkins HOU   WR         8300     21.7
#>  7 11192079  Davante Adams   GB    WR         7800     16.1
#>  8 11192140  Michael Thomas  NO    WR         7800     17.6
#>  9 11192363  Ezekiel Elliott DAL   RB         7700     21.9
#> 10 11193133  Julio Jones     ATL   WR         7600     17.3
#> # ... with 1,005 more rows

Add your custom projections into a column called fpts_proj. This is very important! If your projections aren’t good then your optimized lineups won’t be good either. For this example we’ll just add some random noise to the player’s season average fantasy points.

n <- nrow(data)
data$fpts_proj <- rnorm(n, data$fpts_avg)
print(data)

#> # A tibble: 1,015 x 7
#>    player_id player          team  position salary fpts_avg fpts_proj
#>    <chr>     <chr>           <chr> <chr>     <int>    <dbl>     <dbl>
#>  1 11191729  Le'Veon Bell    PIT   RB         9400     24.7      25.0
#>  2 11192254  Todd Gurley II  LAR   RB         9300     26.5      26.1
#>  3 11191754  David Johnson   ARI   RB         8800     14        14.5
#>  4 11191533  Antonio Brown   PIT   WR         8600     24.6      25.9
#>  5 11192632  Alvin Kamara    NO    RB         8500     19.9      18.1
#>  6 11191840  DeAndre Hopkins HOU   WR         8300     21.7      20.9
#>  7 11192079  Davante Adams   GB    WR         7800     16.1      16.2
#>  8 11192140  Michael Thomas  NO    WR         7800     17.6      18.7
#>  9 11192363  Ezekiel Elliott DAL   RB         7700     21.9      23.1
#> 10 11193133  Julio Jones     ATL   WR         7600     17.3      18.7
#> # ... with 1,005 more rows
…
